%YAML 1.1
%TAG !u! tag:unity3d.com,2011:
--- !u!1045 &1
EditorBuildSettings:
  m_ObjectHideFlags: 0
  serializedVersion: 2
  m_Scenes:
  - enabled: 0
    path: 
    guid: 00000000000000000000000000000000
  - enabled: 1
    path: Assets/Scenes/MainMenu.unity
    guid: 83947727b0d133b42a98170828f4ffa2
  - enabled: 1
    path: Assets/Scenes/Game.unity
    guid: 528b8c942645fad418a6ca90df460d19
  m_configObjects: {}
